/*						 $data=array(
						"user_id"=>"XXX",
						"full_name"=>"Jereme",
						"first_name"=> "Jereme",
						"middle_name"=>"Jereme",
						"last_name"=>"Jereme",
						"address"=> "",
						"fb_url"=>" ",
						"account_name"=>"jereme",
						"account_no"=>"",
						"email"=>"jereme@email.com",
						"contact_no"=>"",						
						"username"=>"jereme",
						"password"=>$this->encryption->encode("jereme123"),
						"access_level"=>"super-admin",
						"user_type"=>"regular",
						"created_by"=>"superadmin",
						"status"=>"active",
						"activation_date"=>date('Y-m-d H:i:s'),	
						"activated_by"=>"superadmin"			
						);	
							$insert_data=$this->setup->saveUser($data);*/